…
# Death_Cause_clear <- NRM_calc %>%
#   filter(complete.cases(Group))
# 
# Death_Cause_clear %>%
#   distinct(Study_Name)

# Number of cohorts included
NRM_calc %>%
  distinct(Study_Name)
```

```
## # A tibble: 52 × 1
## # Groups:   Study_Name [52]
##    Study_Name       
##    <chr>            
##  1 Abramson_2020    
##  2 Akthar_2023      
##  3 Berning_2024     
##  4 Bethge_2022_A    
##  5 Bethge_2022_B    
##  6 Bishop_2022      
##  7 Caillot_2024     
##  8 Chiappella_2024  
##  9 Chong_2024       
## 10 De_Philippis_2024
## # ℹ 42 more rows
```
…
